<svg width="590" height="301" viewBox="0 0 590 301" fill="none" xmlns="http://www.w3.org/2000/svg">
<path fill-rule="evenodd" clip-rule="evenodd" d="M295 300.407C396.537 300.407 478.849 283.469 478.849 250.453C478.849 217.437 409.787 180.845 295 180.845C180.212 180.845 111.151 217.437 111.151 250.453C111.151 283.469 193.463 300.407 295 300.407Z" fill="#0851B5"/>
<path fill-rule="evenodd" clip-rule="evenodd" d="M295 279.98C457.924 279.98 590 252.828 590 199.903C590 146.977 479.185 88.3201 295 88.3201C110.815 88.3201 0 146.977 0 199.903C0 252.828 132.076 279.98 295 279.98Z" fill="#A9CEFF"/>
<path d="M172.16 189.2C173.653 189.2 174.853 189.68 175.76 190.64C176.667 191.547 177.12 192.773 177.12 194.32V241.68C177.12 243.173 176.693 244.347 175.84 245.2C174.987 246.053 173.867 246.48 172.48 246.48C171.093 246.48 170 246.053 169.2 245.2C168.4 244.347 168 243.173 168 241.68V208.72L154.4 234.48C153.76 235.653 153.067 236.533 152.32 237.12C151.573 237.653 150.693 237.92 149.68 237.92C148.667 237.92 147.787 237.653 147.04 237.12C146.293 236.587 145.6 235.707 144.96 234.48L131.28 209.12V241.68C131.28 243.12 130.853 244.293 130 245.2C129.2 246.053 128.107 246.48 126.72 246.48C125.333 246.48 124.24 246.053 123.44 245.2C122.64 244.347 122.24 243.173 122.24 241.68V194.32C122.24 192.773 122.667 191.547 123.52 190.64C124.427 189.68 125.627 189.2 127.12 189.2C129.2 189.2 130.827 190.347 132 192.64L149.76 226.48L167.44 192.64C168.613 190.347 170.187 189.2 172.16 189.2ZM206.306 246.64C202.306 246.64 198.786 245.813 195.746 244.16C192.759 242.507 190.439 240.133 188.786 237.04C187.132 233.947 186.306 230.347 186.306 226.24C186.306 222.133 187.132 218.56 188.786 215.52C190.439 212.427 192.759 210.053 195.746 208.4C198.786 206.747 202.306 205.92 206.306 205.92C210.306 205.92 213.799 206.747 216.786 208.4C219.826 210.053 222.146 212.427 223.746 215.52C225.399 218.56 226.226 222.133 226.226 226.24C226.226 230.347 225.399 233.947 223.746 237.04C222.146 240.133 219.826 242.507 216.786 244.16C213.799 245.813 210.306 246.64 206.306 246.64ZM206.226 238.88C209.479 238.88 211.959 237.813 213.666 235.68C215.372 233.547 216.226 230.4 216.226 226.24C216.226 222.133 215.372 219.013 213.666 216.88C211.959 214.693 209.506 213.6 206.306 213.6C203.106 213.6 200.626 214.693 198.866 216.88C197.159 219.013 196.306 222.133 196.306 226.24C196.306 230.4 197.159 233.547 198.866 235.68C200.572 237.813 203.026 238.88 206.226 238.88ZM246.679 218.4C246.679 226.56 245.665 232.8 243.639 237.12C241.612 241.387 238.705 244.427 234.919 246.24C234.332 246.507 233.639 246.64 232.839 246.64C231.665 246.64 230.705 246.293 229.959 245.6C229.212 244.853 228.839 243.92 228.839 242.8C228.839 242 229.052 241.253 229.479 240.56C229.905 239.813 230.545 239.2 231.399 238.72C233.692 237.44 235.265 235.307 236.119 232.32C237.025 229.333 237.479 224.773 237.479 218.64V211.92C237.425 210.373 237.825 209.147 238.679 208.24C239.532 207.333 240.705 206.88 242.199 206.88H263.319C264.865 206.827 266.092 207.227 266.999 208.08C267.905 208.933 268.359 210.107 268.359 211.6V241.76C268.359 243.2 267.905 244.347 266.999 245.2C266.092 246.053 264.865 246.48 263.319 246.48C261.825 246.48 260.625 246.053 259.719 245.2C258.812 244.347 258.359 243.2 258.359 241.76V214.4H246.679V218.4ZM296.384 246.64C292.384 246.64 288.864 245.813 285.824 244.16C282.837 242.507 280.517 240.133 278.864 237.04C277.21 233.947 276.384 230.347 276.384 226.24C276.384 222.133 277.21 218.56 278.864 215.52C280.517 212.427 282.837 210.053 285.824 208.4C288.864 206.747 292.384 205.92 296.384 205.92C300.384 205.92 303.877 206.747 306.864 208.4C309.904 210.053 312.224 212.427 313.824 215.52C315.477 218.56 316.304 222.133 316.304 226.24C316.304 230.347 315.477 233.947 313.824 237.04C312.224 240.133 309.904 242.507 306.864 244.16C303.877 245.813 300.384 246.64 296.384 246.64ZM296.304 238.88C299.557 238.88 302.037 237.813 303.744 235.68C305.45 233.547 306.304 230.4 306.304 226.24C306.304 222.133 305.45 219.013 303.744 216.88C302.037 214.693 299.584 213.6 296.384 213.6C293.184 213.6 290.704 214.693 288.944 216.88C287.237 219.013 286.384 222.133 286.384 226.24C286.384 230.4 287.237 233.547 288.944 235.68C290.65 237.813 293.104 238.88 296.304 238.88ZM324.719 256.64C323.333 256.64 322.213 256.213 321.359 255.36C320.559 254.56 320.159 253.413 320.159 251.92V243.52C320.106 241.973 320.506 240.747 321.359 239.84C322.213 238.933 323.333 238.48 324.719 238.48H325.599C327.146 235.707 328.213 232.587 328.799 229.12C329.439 225.653 329.759 221.547 329.759 216.8V211.92C329.706 210.373 330.106 209.147 330.959 208.24C331.813 207.333 332.986 206.88 334.479 206.88H354.239C355.786 206.827 357.013 207.227 357.919 208.08C358.826 208.933 359.279 210.107 359.279 211.6V238.48H360.559C362.106 238.427 363.333 238.827 364.239 239.68C365.146 240.533 365.599 241.707 365.599 243.2V251.92C365.599 253.413 365.173 254.56 364.319 255.36C363.519 256.213 362.426 256.64 361.039 256.64C359.599 256.64 358.479 256.213 357.679 255.36C356.879 254.56 356.479 253.413 356.479 251.92V246H329.359V251.92C329.359 253.413 328.933 254.56 328.079 255.36C327.279 256.213 326.159 256.64 324.719 256.64ZM349.359 214.4H338.399V216.8C338.399 221.867 337.999 226.267 337.199 230C336.453 233.733 335.386 236.56 333.999 238.48H349.359V214.4ZM402.394 235.28C403.301 235.28 404.021 235.627 404.554 236.32C405.141 237.013 405.434 237.947 405.434 239.12C405.434 240.773 404.448 242.16 402.474 243.28C400.661 244.293 398.608 245.12 396.314 245.76C394.021 246.347 391.834 246.64 389.754 246.64C383.461 246.64 378.474 244.827 374.794 241.2C371.114 237.573 369.274 232.613 369.274 226.32C369.274 222.32 370.074 218.773 371.674 215.68C373.274 212.587 375.514 210.187 378.394 208.48C381.328 206.773 384.634 205.92 388.314 205.92C391.834 205.92 394.901 206.693 397.514 208.24C400.128 209.787 402.154 211.973 403.594 214.8C405.034 217.627 405.754 220.96 405.754 224.8C405.754 227.093 404.741 228.24 402.714 228.24H379.114C379.434 231.92 380.474 234.64 382.234 236.4C383.994 238.107 386.554 238.96 389.914 238.96C391.621 238.96 393.114 238.747 394.394 238.32C395.728 237.893 397.221 237.307 398.874 236.56C400.474 235.707 401.648 235.28 402.394 235.28ZM388.554 212.96C385.834 212.96 383.648 213.813 381.994 215.52C380.394 217.227 379.434 219.68 379.114 222.88H397.194C397.088 219.627 396.288 217.173 394.794 215.52C393.301 213.813 391.221 212.96 388.554 212.96ZM450.814 256.64C449.428 256.64 448.308 256.213 447.454 255.36C446.654 254.56 446.254 253.413 446.254 251.92V246H418.734C417.188 246.053 415.961 245.653 415.054 244.8C414.148 243.947 413.694 242.773 413.694 241.28V210.8C413.694 209.36 414.148 208.213 415.054 207.36C415.961 206.507 417.161 206.08 418.654 206.08C420.201 206.08 421.428 206.507 422.334 207.36C423.241 208.213 423.694 209.36 423.694 210.8V238.48H439.054V210.8C439.054 209.36 439.508 208.213 440.414 207.36C441.321 206.507 442.548 206.08 444.094 206.08C445.588 206.08 446.788 206.507 447.694 207.36C448.601 208.213 449.054 209.36 449.054 210.8V238.48H450.334C451.881 238.427 453.108 238.827 454.014 239.68C454.921 240.533 455.374 241.707 455.374 243.2V251.92C455.374 253.413 454.974 254.56 454.174 255.36C453.374 256.213 452.254 256.64 450.814 256.64ZM466.936 229.68C466.136 229.68 465.442 229.413 464.856 228.88C464.322 228.347 464.002 227.573 463.896 226.56L460.936 195.44L460.856 194.64C460.856 192.987 461.416 191.68 462.536 190.72C463.709 189.707 465.176 189.2 466.936 189.2C468.802 189.2 470.322 189.787 471.496 190.96C472.669 192.08 473.149 193.6 472.936 195.52L469.976 226.56C469.869 227.573 469.522 228.347 468.936 228.88C468.402 229.413 467.736 229.68 466.936 229.68ZM466.936 246.48C465.229 246.48 463.816 245.92 462.696 244.8C461.576 243.627 461.016 242.187 461.016 240.48C461.016 238.773 461.576 237.36 462.696 236.24C463.816 235.067 465.229 234.48 466.936 234.48C468.642 234.48 470.056 235.067 471.176 236.24C472.296 237.36 472.856 238.773 472.856 240.48C472.856 242.187 472.296 243.627 471.176 244.8C470.056 245.92 468.642 246.48 466.936 246.48Z" fill="#0851B5"/>
<path d="M295 174.236C396.869 174.236 479.45 155.541 479.45 132.48C479.45 109.418 396.869 90.7231 295 90.7231C193.131 90.7231 110.55 109.418 110.55 132.48C110.55 155.541 193.131 174.236 295 174.236Z" fill="#EEF5FF"/>
<mask id="mask0_2_2412" style="mask-type:alpha" maskUnits="userSpaceOnUse" x="157" y="0" width="276" height="138">
<path d="M294.998 0C370.017 0 431.016 56.0824 432.587 125.821C392.402 133.291 345.326 137.587 294.998 137.587C244.671 137.587 197.596 133.291 157.413 125.823C158.98 56.0824 219.98 0 294.998 0Z" fill="#FFFDDC"/>
</mask>
<g mask="url(#mask0_2_2412)">
<path d="M294.998 0C370.017 0 431.016 56.0824 432.587 125.821C392.402 133.291 345.326 137.587 294.998 137.587C244.671 137.587 197.596 133.291 157.413 125.823C158.98 56.0824 219.98 0 294.998 0Z" fill="#0851B5"/>
<path d="M299.806 61.283H290.794C276.526 61.283 264.959 72.8497 264.959 87.118V136.385C264.959 150.653 276.526 162.22 290.794 162.22H299.806C314.075 162.22 325.641 150.653 325.641 136.385V87.118C325.641 72.8497 314.075 61.283 299.806 61.283Z" fill="#A9CEFF"/>
<path d="M334.653 85.6158C334.653 63.8816 317.034 46.2625 295.3 46.2625C273.566 46.2625 255.947 63.8816 255.947 85.6158V137.887C255.947 159.621 273.566 177.24 295.3 177.24C317.034 177.24 334.653 159.621 334.653 137.887V85.6158Z" fill="#A9CEFF"/>
<path d="M303.711 111.151C316.155 111.151 326.242 100.929 326.242 88.3197C326.242 75.7105 316.155 65.4888 303.711 65.4888C291.268 65.4888 281.181 75.7105 281.181 88.3197C281.181 100.929 291.268 111.151 303.711 111.151Z" fill="#EEF5FF"/>
<path d="M309.119 96.1305C313.267 96.1305 316.629 92.6335 316.629 88.3199C316.629 84.0062 313.267 80.5093 309.119 80.5093C304.971 80.5093 301.609 84.0062 301.609 88.3199C301.609 92.6335 304.971 96.1305 309.119 96.1305Z" fill="#2F80ED"/>
<path fill-rule="evenodd" clip-rule="evenodd" d="M302.51 124.969C305.663 124.969 308.218 123.021 308.218 120.618C308.218 118.215 305.663 119.134 302.51 119.134C299.358 119.134 296.802 118.215 296.802 120.618C296.802 123.021 299.358 124.969 302.51 124.969Z" fill="#2F80ED"/>
<path d="M367.698 190.458C400.216 190.458 426.578 172.705 426.578 150.805C426.578 128.904 400.216 111.151 367.698 111.151C335.179 111.151 308.818 128.904 308.818 150.805C308.818 172.705 335.179 190.458 367.698 190.458Z" fill="#2F80ED"/>
</g>
</svg>
